…
    ## -- Attaching packages --------------------------------------- tidyverse 1.3.0 --

    ## v ggplot2 3.3.3     v purrr   0.3.4
    ## v tibble  3.0.5     v stringr 1.4.0
    ## v tidyr   1.1.2     v forcats 0.5.0
    ## v readr   1.4.0

    ## -- Conflicts ------------------------------------------ tidyverse_conflicts() --
    ## x dplyr::filter() masks stats::filter()
    ## x dplyr::lag()    masks stats::lag()

    ## Joining, by = "Country"
    ## Joining, by = "Country"

    ## # A tibble: 321 x 7
    ##    Country              Year Alcohol BothSexes  Male Female Consumption
    ##    <chr>               <dbl>   <dbl>     <dbl> <dbl>  <dbl>       <dbl>
    ##  1 Sweden               2000    8.4         72    87     56   0.117    
    ##  2 Sweden               2001    9.1         72    88     55   0.126    
    ##  3 Sweden               2002    9.9         70    85     54   0.141    
    ##  4 Sweden               2003   10.2         68    83     53   0.15     
    ##  5 Sweden               2004   10.5         70    85     54   0.15     
    ##  6 Afghanistan          2005    0.02       277   296    258   0.0000722
    ##  7 Albania              2005    6.68       106   125     85   0.0630   
    ##  8 Algeria              2005    0.96       119   133    105   0.00807  
    ##  9 Angola               2005    5.4        323   358    288   0.0167   
    ## 10 Antigua and Barbuda  2005    7.22       156   187    125   0.0463   
    ## # ... with 311 more rows
…
    ## `summarise()` has grouped output by 'Year'. You can override using the `.groups` argument.

    ## # A tibble: 45 x 2
    ## # Groups:   Year [9]
    ##     Year quantile_Alcohol
    ##    <dbl>            <dbl>
    ##  1  2000              8.4
    ##  2  2000              8.4
    ##  3  2000              8.4
    ##  4  2000              8.4
    ##  5  2000              8.4
    ##  6  2001              9.1
    ##  7  2001              9.1
    ##  8  2001              9.1
    ##  9  2001              9.1
    ## 10  2001              9.1
    ## # ... with 35 more rows

    ## Adding missing grouping variables: `Country`

    ## # A tibble: 321 x 2
    ## # Groups:   Country [157]
    ##    Country   Alcohol
    ##    <chr>       <dbl>
    ##  1 Belarus      18.8
    ##  2 Ukraine      17.5
    ##  3 Estonia      17.2
    ##  4 Uganda       16.4
    ##  5 Lithuania    16.3
    ##  6 Hungary      16.3
    ##  7 Romania      16.2
    ##  8 Hungary      16.1
    ##  9 Ukraine      15.6
    ## 10 Estonia      15.6
    ## # ... with 311 more rows
…
    ## `summarise()` has grouped output by 'Year'. You can override using the `.groups` argument.

    ## # A tibble: 45 x 2
    ## # Groups:   Year [9]
    ##     Year quantile_BothSexes
    ##    <dbl>              <dbl>
    ##  1  2000                 72
    ##  2  2000                 72
    ##  3  2000                 72
    ##  4  2000                 72
    ##  5  2000                 72
    ##  6  2001                 72
    ##  7  2001                 72
    ##  8  2001                 72
    ##  9  2001                 72
    ## 10  2001                 72
    ## # ... with 35 more rows

    ## Adding missing grouping variables: `Country`

    ## # A tibble: 321 x 2
    ## # Groups:   Country [157]
    ##    Country                  mean_BothSexes
    ##    <chr>                             <dbl>
    ##  1 Zimbabwe                           638.
    ##  2 Zimbabwe                           638.
    ##  3 Lesotho                            579 
    ##  4 Lesotho                            579 
    ##  5 Central African Republic           517 
    ##  6 Central African Republic           517 
    ##  7 Zambia                             498.
    ##  8 Zambia                             498.
    ##  9 Malawi                             486.
    ## 10 Malawi                             486.
    ## # ... with 311 more rows
…
